<svg width="133" height="19" viewBox="0 0 133 19" fill="none" xmlns="http://www.w3.org/2000/svg">
<path fill-rule="evenodd" clip-rule="evenodd" d="M0 19H2.15201L2.84082 5.99107L8.5491 10.7761L14.1017 5.92783L14.8648 19H17L15.9408 2.0534L8.5491 8.65835L1.01708 2L0 19Z" fill="#4A4A4A"/>
<path fill-rule="evenodd" clip-rule="evenodd" d="M19 19H21V4H19V19Z" fill="#4A4A4A"/>
<path fill-rule="evenodd" clip-rule="evenodd" d="M26.4787 14.4324C27.2122 14.6305 27.8624 14.7106 28.5315 14.6753C29.1844 14.6536 29.9676 14.5776 30.505 14.3659L28.8216 12.3438L30.3236 11.5851L32.0862 13.7484C33.5465 13.0576 34.5836 11.6285 34.6373 10.3298C34.8388 6.46325 31.6737 4.74511 28.3944 4.74511H26.4787V14.4324ZM26.4787 18.5269H24.5388V3.4314H28.0062C34.3633 3.4314 36.6619 6.6139 36.4187 10.4166C36.3005 12.2542 35.1008 13.8068 33.0158 14.902L35.9807 18.5269H33.8151L31.3768 15.4611C30.6124 15.704 29.7956 15.8506 28.913 15.9144C28.0626 15.966 27.2122 15.9144 26.4787 15.8058V18.5269Z" fill="#4A4A4A"/>
<path fill-rule="evenodd" clip-rule="evenodd" d="M41.0689 14.5026H48.048L44.6773 6.81841L41.0689 14.5026ZM37.1609 18.5265L44.762 2.89355L51.9224 18.5265H49.8697L48.631 15.8054H40.5154L39.1908 18.5265H37.1609Z" fill="#4A4A4A"/>
<path fill-rule="evenodd" clip-rule="evenodd" d="M63.8006 17.2713H64.8364C69.1085 17.2713 72.7921 14.7728 72.8257 11.4071C72.8459 7.31937 69.1085 4.74622 65.1051 4.74622H63.8006V17.2713ZM61.8701 18.5267V3.43115H65.3402C70.2584 3.43115 74.7858 6.50644 74.6743 11.2117C74.5802 15.8639 70.0945 18.5267 64.6913 18.5267H61.8701Z" fill="#4A4A4A"/>
<path fill-rule="evenodd" clip-rule="evenodd" d="M79.3299 14.4324C80.0728 14.6305 80.7204 14.7106 81.3988 14.6753C82.0262 14.6536 82.8268 14.5776 83.3508 14.3659L81.693 12.3438L83.1775 11.5851L84.9494 13.7484C86.4071 13.0576 87.4348 11.6285 87.502 10.3298C87.6967 6.46325 84.5276 4.74511 81.2429 4.74511H79.3299V14.4324ZM79.3299 18.5269H77.3994V3.4314H80.8641C87.2265 3.4314 89.5144 6.6139 89.2874 10.4166C89.1745 12.2542 87.9641 13.8068 85.8831 14.902L88.8494 18.5269H86.6757L84.2307 15.4611C83.469 15.704 82.6522 15.8506 81.7709 15.9144C80.9232 15.966 80.0728 15.9144 79.3299 15.8058V18.5269Z" fill="#4A4A4A"/>
<path fill-rule="evenodd" clip-rule="evenodd" d="M93.2196 11.3005C93.0799 15.2457 96.1846 17.7225 100.231 17.7225C104.698 17.7225 107.86 15.015 107.899 11.3005C107.922 6.98341 104.698 4.36141 100.439 4.41298C96.245 4.46591 93.397 6.84363 93.2196 11.3005ZM100.504 3.09927C106.047 3.07348 110.016 6.41341 109.806 11.3005C109.595 16.1835 105.203 18.9996 100.055 18.9996C95.0668 18.9996 91.2864 15.9867 91.3052 11.3005C91.3455 6.05105 95.1259 3.1332 100.504 3.09927Z" fill="#4A4A4A"/>
<path fill-rule="evenodd" clip-rule="evenodd" d="M114.468 14.4324C115.199 14.6305 115.831 14.7106 116.51 14.6753C117.168 14.6536 117.957 14.5776 118.471 14.3659L116.808 12.3438L118.298 11.5851L120.06 13.7484C121.526 13.0576 122.556 11.6285 122.624 10.3298C122.816 6.46325 119.663 4.74511 116.363 4.74511H114.468V14.4324ZM114.468 18.5269H112.522V3.4314H115.988C122.343 3.4314 124.636 6.6139 124.412 10.4166C124.281 12.2542 123.084 13.8068 120.995 14.902L123.964 18.5269H121.795L119.358 15.4611C118.604 15.704 117.769 15.8506 116.894 15.9144C116.048 15.966 115.199 15.9144 114.468 15.8058V18.5269Z" fill="#4A4A4A"/>
<mask id="mask0" mask-type="alpha" maskUnits="userSpaceOnUse" x="125" y="0" width="8" height="7">
<path fill-rule="evenodd" clip-rule="evenodd" d="M125.538 0.687256H132.144V6.3764H125.538V0.687256Z" fill="white"/>
</mask>
<g mask="url(#mask0)">
<path fill-rule="evenodd" clip-rule="evenodd" d="M128.845 0.687256C127.015 0.687256 125.538 1.96433 125.538 3.53454C125.538 5.10747 127.015 6.3764 128.845 6.3764C130.68 6.3764 132.145 5.10747 132.145 3.53454C132.145 1.96433 130.68 0.687256 128.845 0.687256ZM128.122 2.62526H128.39C128.927 2.62526 129.348 2.62526 129.348 2.97947C129.348 3.35676 128.947 3.35676 128.39 3.35676H128.122V2.62526ZM127.5 4.87947H128.122V3.7639H128.285C128.603 3.7639 128.801 3.81683 129.153 4.43026L129.425 4.87947H130.206L129.834 4.32304C129.565 3.93354 129.464 3.79511 129.189 3.71776V3.68383C129.814 3.60918 130.011 3.24411 130.011 2.94554C130.011 2.72433 129.904 2.49904 129.686 2.35383C129.451 2.21268 129.252 2.21268 128.122 2.21268H127.5V4.87947ZM128.845 1.24097C130.307 1.24097 131.49 2.26968 131.49 3.53454C131.49 4.79126 130.307 5.81726 128.845 5.81726C127.378 5.81726 126.181 4.79126 126.181 3.53454C126.181 2.26968 127.378 1.24097 128.845 1.24097Z" fill="#4A4A4A"/>
</g>
</svg>
